Greedy TSPLIB 99 1554 91.875 
Greedy TSPLIB 29 2005 14.6 
Greedy TSPLIB 127 135737 158.4 
Greedy TSPLIB 51 511 32.65 
Greedy TSPLIB 48 12861 30.575 
Greedy TSPLIB 76 642 67.9 
Greedy TSPLIB 532 35516 2429.88 
Greedy TSPLIB 1000 24631468 9439.75 
Greedy TSPLIB 42 956 25.075 
Greedy TSPLIB 280 3157 643.95 
Greedy TSPLIB 107 46680 96.575 
