AGM Constante 43 0 895.225 
AGM Constante 119 0 20360.2 
AGM Constante 16 0 66.475 
AGM Constante 55 0 2148.55 
AGM Constante 14 0 44.65 
AGM Constante 33 0 438.775 
AGM Constante 79 0 5493.88 
AGM Constante 49 0 1336.12 
AGM Constante 95 0 10295.1 
AGM Constante 88 0 8071.62 
AGM Constante 91 0 8327.55 
AGM Constante 77 0 5538.6 
AGM Constante 98 0 10547.9 
AGM Constante 83 0 6758.35 
AGM Constante 87 0 7710.1 
AGM Constante 97 0 10004.4 
AGM Constante 106 0 13441.1 
AGM Constante 28 0 251.1 
AGM Constante 64 0 2803.3 
AGM Constante 31 0 341.2 
AGM Constante 4 0 6.575 
AGM Constante 86 0 7652.85 
AGM Constante 69 0 3529.82 
AGM Constante 58 0 2347.07 
AGM Constante 25 0 186.275 
AGM Constante 115 0 16822.5 
AGM Constante 101 0 11352 
AGM Constante 41 0 752.875 
AGM Constante 37 0 579.725 
AGM Constante 39 0 595.075 
AGM Constante 52 0 1422.45 
AGM Constante 92 0 9189.2 
AGM Constante 47 0 1158.62 
AGM Constante 68 0 3373.6 
AGM Constante 18 0 75.75 
AGM Constante 6 0 10.325 
AGM Constante 61 0 2724.65 
AGM Constante 60 0 2398.9 
AGM Constante 24 0 161.85 
AGM Constante 67 0 3277.15 
AGM Constante 100 0 11067.5 
AGM Constante 78 0 5061.2 
AGM Constante 57 0 1928 
AGM Constante 56 0 2106.47 
AGM Constante 17 0 67.05 
AGM Constante 59 0 2164.18 
AGM Constante 94 0 9010.73 
AGM Constante 121 0 19472.4 
AGM Constante 48 0 1130.2 
AGM Constante 26 0 208.375 
AGM Constante 109 0 13738.5 
AGM Constante 5 0 7.15 
AGM Constante 80 0 5658.6 
AGM Constante 114 0 16416 
AGM Constante 23 0 144.55 
AGM Constante 112 0 15099.5 
AGM Constante 105 0 12968.7 
AGM Constante 84 0 6184.55 
AGM Constante 40 0 654.125 
AGM Constante 27 0 217.175 
AGM Constante 89 0 7617.3 
AGM Constante 93 0 9245.8 
AGM Constante 111 0 15639.2 
AGM Constante 38 0 593.625 
AGM Constante 96 0 9495.38 
AGM Constante 7 0 11.55 
AGM Constante 53 0 1570.58 
AGM Constante 82 0 5920.35 
AGM Constante 99 0 10618.8 
AGM Constante 85 0 6865.2 
AGM Constante 30 0 313.425 
AGM Constante 104 0 12693.4 
AGM Constante 108 0 13867.9 
AGM Constante 116 0 16996.6 
AGM Constante 36 0 542.975 
AGM Constante 65 0 2787.5 
AGM Constante 44 0 902.875 
AGM Constante 73 0 4351.85 
AGM Constante 8 0 14.175 
AGM Constante 35 0 443.25 
AGM Constante 22 0 125.325 
AGM Constante 107 0 13462 
AGM Constante 75 0 4691.27 
AGM Constante 42 0 760.45 
AGM Constante 103 0 11797 
AGM Constante 102 0 11854.7 
AGM Constante 110 0 16252.7 
AGM Constante 117 0 18996 
AGM Constante 2 0 3.6 
AGM Constante 20 0 108.1 
AGM Constante 62 0 2599.07 
AGM Constante 34 0 416.3 
AGM Constante 90 0 8269.38 
AGM Constante 76 0 5062.43 
AGM Constante 21 0 112.875 
AGM Constante 118 0 17516.1 
AGM Constante 13 0 37.175 
AGM Constante 45 0 964.725 
AGM Constante 15 0 57.1 
AGM Constante 70 0 3955.3 
AGM Constante 50 0 1284.95 
AGM Constante 63 0 2817.28 
AGM Constante 12 0 32.025 
AGM Constante 19 0 88.45 
AGM Constante 74 0 4551.75 
AGM Constante 46 0 1117.9 
AGM Constante 10 0 22.5 
AGM Constante 3 0 4.15 
AGM Constante 71 0 4289.07 
AGM Constante 29 0 267.875 
AGM Constante 11 0 27.7 
AGM Constante 54 0 1631.3 
AGM Constante 32 0 375.325 
AGM Constante 66 0 3135.32 
AGM Constante 113 0 16122.5 
AGM Constante 120 0 18571.2 
AGM Constante 51 0 1374.92 
AGM Constante 9 0 17.675 
AGM Constante 81 0 6603.98 
AGM Constante 72 0 5339.02 
